{
	"id": "81fe1ea5-ef37-4fe8-a68e-c117c4936a34",
	"name": "We_are_social_media_production",
	"values": [
		{
			"key": "baseURL",
			"value": "http://164.138.216.247:8082",
			"enabled": true
		}
	],
	"_postman_variable_scope": "environment",
	"_postman_exported_at": "2021-07-29T17:48:13.537Z",
	"_postman_exported_using": "Postman/8.9.1"
}