{
	"id": "3e6a8e60-77e1-475f-ab27-bdfe1837eeed",
	"name": "We_are_social_media",
	"values": [
		{
			"key": "baseURL",
			"value": "localhost:8081",
			"enabled": true
		}
	],
	"_postman_variable_scope": "environment",
	"_postman_exported_at": "2021-07-28T04:54:08.470Z",
	"_postman_exported_using": "Postman/8.8.0"
}